Capstone 4th Economy
…
## # A tibble: 6 x 10
## # Groups:   FIPS, Month, State [6]
##    FIPS Month State   CLDAYCR     Emp Claims  Case Death Vaccine Hospitalized
##   <int> <int> <chr>     <dbl>   <int>  <int> <int> <int>   <int>        <int>
## 1     1     2 Alabama       0 2177852   7573     0     0       0            0
## 2     1     3 Alabama       1 2176275 150556   740    10       0          150
## 3     1     4 Alabama       1 1899019 300079  5842   230       0        11333
## 4     1     5 Alabama       1 2044109 106301  9946   362       0        13027
## 5     1     6 Alabama       0 2049715  82914 18523   318       0        24295
## 6     1     7 Alabama       0 2056348  82427 47568   601       0        50006

print(Prep)

## # A tibble: 357 x 10
## # Groups:   FIPS, Month, State [357]
##     FIPS Month State   CLDAYCR     Emp Claims  Case Death Vaccine Hospitalized
##    <int> <int> <chr>     <dbl>   <int>  <int> <int> <int>   <int>        <int>
##  1     1     2 Alabama       0 2177852   7573     0     0       0            0
##  2     1     3 Alabama       1 2176275 150556   740    10       0          150
##  3     1     4 Alabama       1 1899019 300079  5842   230       0        11333
##  4     1     5 Alabama       1 2044109 106301  9946   362       0        13027
##  5     1     6 Alabama       0 2049715  82914 18523   318       0        24295
##  6     1     7 Alabama       0 2056348  82427 47568   601       0        50006
##  7     1     8 Alabama       0 2061877  41797 39531   594       0        53634
##  8     2     2 Alaska        0  335023   3580     0     0       0            0
##  9     2     3 Alaska        0  334331  30261    98     1       0           26
## 10     2     4 Alaska        0  304991  49769   246     0       0          438
## # ... with 347 more rows
…
#cldaycr <- filter(Prep, CLDAYCR == 1)
cldaycr <- Prep[c(1:7,50:56,92:98,120:126,141:147,148:161,211:217,246:252,260:280,337:343,351:357),]
#states never closed day care
ncl <- Prep[-c(1:7,50:56,92:98,120:126,141:147,148:161,211:217,246:252,260:280,337:343,351:357),]
view(cldaycr)
View(ncl)
count(cldaycr,Month)

## # A tibble: 98 x 4
## # Groups:   FIPS, Month, State [98]
##     FIPS Month State        n
##    <int> <int> <chr>    <int>
##  1     1     2 Alabama      1
##  2     1     3 Alabama      1
##  3     1     4 Alabama      1
##  4     1     5 Alabama      1
##  5     1     6 Alabama      1
##  6     1     7 Alabama      1
##  7     1     8 Alabama      1
##  8    10     2 Delaware     1
##  9    10     3 Delaware     1
## 10    10     4 Delaware     1
## # ... with 88 more rows
…
